{
  "cviceni": {
    "version": {
      "global": "<%= version %>",
      "content": 2
    },
    "katalog": [
      "test",
      "public"
    ],
    "language": "cs",
    "slug": "kdo-byl-jejich-nepritel",
    "nazev": "Kdo byl jejich nepřítel?",
    "autor": [
      "Roman Anýž",
      "Jaroslav Najbert"
    ],
    "cas": [
      1934
    ],
    "epocha": {
      "svetova": [
        "od velké hospodářské krize k válce"
      ]
    },
    "klicovaSlova": [
      "nacismus",
      "antisemitismus",
      "propaganda",
      "ideologie",
      "obraz nepřítele",
      "historická perspektiva",
      "etická dimenze",
      "vidíme pod povrch pramene"
    ],
    "anotace": {
      "ucitel": "Cvičení rozvíjí dovednost analyzovat karikaturu a získat kritický odstup od nacistické antisemitské propagandy. Využívá stereotypizované zobrazení „Žida“ ve známém nacistickém týdeníku Der Stürmer. Karikatura sloužila k vytváření a posilování obrazu „Žida“ jako nepřítele, který usiluje o zkázu Německa a Evropy.",
      "verejna": "Jak fungovala nacistická propaganda před druhou světovou válkou a jak na nás působí dnes? Prozkoumejte karikaturu v novinách a zjistěte, kdo byl jejich nepřítel."
    },
    "obtiznost": "stredni",
    "trvani": 35,
    "funkce": ["lupa", "cteni", "text", "svg", "znacky", "pretahovani"],
    "pdf": {
      "doporucenyPostup": "kdo-byl-jejich-nepritel.pdf"
    },
    "uvodniObrazek": "kdo-byl-jejich-nepritel/pic-00-1024h.jpg",
    "id": 77
  },
  "slajd": [
    {
      "class": [
        "half-slide-previous"
      ],
      "zadani": {
        "hlavni": "Prohlédněte si stránku novin s karikaturou.",
        "rozsirujici": ""
      },
      "napoveda": {
        "aktivity": [
          "lupa"
        ],
        "text": "Při kliknutí levým tlačítkem do obrazu lupa přiblíží část obrazu ve výřezu."
      },
      "prameny": [
        "kdo-byl-jejich-nepritel/pic-00-1024h.jpg"
      ],
      "popisky": [
        "Titulní stránka nacistického propagandistického týdeníku Der Stürmer (v překladu Útočník) z roku 1934. Týdeník se snažil oslovit co největší publikum, zaměřoval se zejména na čtenáře z nižších společenských vrstev. Vydavatel Julius Streicher byl po válce Norimberským tribunálem odsouzen k trestu smrti a popraven. Titulky zní: „Kdo je nepřítel? Štvaní ke světové válce a židovské protokoly z Basileje. Evropa na porážce. Svět chce mír.” Der Stürmer, Německý týdeník v boji za pravdu, 1934. Zdroj: United States Holocaust Memorial Museum"
      ]
    },
    {
      "class": [
        "half-slide-active"
      ],
      "zadani": {
        "hlavni": "Prohlédněte si karikaturu.",
        "rozsirujici": ""
      },
      "napoveda": {
        "aktivity": [
          "lupa"
        ],
        "text": "Při kliknutí levým tlačítkem do obrazu lupa přiblíží část obrazu ve výřezu."
      },
      "prameny": [
        "kdo-byl-jejich-nepritel/pic-01-1280w.jpg"
      ],
      "popisky": [
        "Karikatura z titulní stránky propagandistického týdeníku Der Stürmer. Rýmovaný text zní: „To ne národy, to Žid chce válku, to národy zaplatí Židovo vítězství krví.“ Der Stürmer, Německý týdeník v boji za pravdu, 1934. Zdroj: United States Holocaust Memorial Museum"
      ]
    },
    {
      "zadani": {
        "hlavni": "Jaký je význam karikatury? Vyberte pět pojmů z nabídky.",
        "rozsirujici": ""
      },
      "napoveda": {
        "aktivity": [
          "svg"
        ],
        "text": "Pomocí drag and drop přesouvejte položky z nabídky do obrázku."
      },
      "svg": {
        "pretahovani": {
          "id": "pretahovani-1",
          "items": [
            {
              "objekt": "válka",
              "medium": "tag"
            },
            {
              "objekt": "smrt",
              "medium": "tag"
            },
            {
              "objekt": "zkáza",
              "medium": "tag"
            },
            {
              "objekt": "pláč",
              "medium": "tag"
            },
            {
              "objekt": "Evropa",
              "medium": "tag"
            },
            {
              "objekt": "Německo",
              "medium": "tag"
            },
            {
              "objekt": "oběť",
              "medium": "tag"
            },
            {
              "objekt": "viník",
              "medium": "tag"
            },
            {
              "objekt": "ovládání",
              "medium": "tag"
            },
            {
              "objekt": "spiknutí",
              "medium": "tag"
            },
            {
              "objekt": "bolševismus",
              "medium": "tag"
            },
            {
              "objekt": "hanebnost",
              "medium": "tag"
            },
            {
              "objekt": "krása",
              "medium": "tag"
            },
            {
              "objekt": "ošklivost",
              "medium": "tag"
            }
          ]
        },
        "soubory": [
          {
            "id": "svg-1",
            "soubor": "kdo-byl-jejich-nepritel/pic-01-1280w.jpg",
            "funkce": [],
            "drop": true
          }
        ]
      },
      "popisky": [
        "Karikatura z titulní stránky propagandistického týdeníku Der Stürmer. Rýmovaný text zní: „To ne národy, to Žid chce válku, to národy zaplatí Židovo vítězství krví.“ Der Stürmer, Německý týdeník v boji za pravdu, 1934. Zdroj: United States Holocaust Memorial Museum"
      ]
    },
    {
      "class": [
        "half-slide-previous"
      ],
      "zadani": {
        "hlavni": "Co dělá z karikatury nacistickou propagandu?",
        "rozsirujici": "Označte na karikatuře prvky, které sloužily k manipulaci čtenářů."
      },
      "napoveda": {
        "aktivity": [
          "svg"
        ],
        "text": "Kliknutím na snímek levým tlačítkem myši označujete bod. Nakliknutím na bod pravým tlačítkem otevřete menu s nabídkou úkonů: změnit barvu bodu, (T) doplnit textový komentář, (X) smazat nakliknutý objekt."
      },
      "svg": {
        "soubory": [
          {
            "id": "svg-1-duplicated",
            "soubor": "kdo-byl-jejich-nepritel/pic-01-1280w.jpg",
            "funkce": [
              "text",
              "znacky"
            ],
            "duplikovat": [
              "svg-1"
            ]
          }
        ]
      },
      "popisky": [
        "Karikatura z titulní stránky propagandistického týdeníku Der Stürmer. Rýmovaný text zní: „To ne národy, to Žid chce válku, to národy zaplatí Židovo vítězství krví.“ Der Stürmer, Německý týdeník v boji za pravdu, 1934. Zdroj: United States Holocaust Memorial Museum"
      ]
    },
    {
      "class": [
        "half-slide-active"
      ],
      "zadani": {
        "hlavni": "Odpovězte na otázky.",
        "rozsirujici": ""
      },
      "napoveda": {
        "aktivity": [
          "text"
        ],
        "text": "Do boxu pro text zapisujete odpověď na otázku, nebo jiný komentář (dle zadání)."
      },
      "uzivatelskyText": {
        "otazky": [
          {
            "id": "text-1",
            "zadani": "Jakým způsobem karikatura manipulovala čtenáře?",
            "instrukce": "Myslím si, že…",
            "minDelka": 10,
            "maxDelka": 999
          },
          {
            "id": "text-2",
            "zadani": "Jak na vás karikatura působí dnes?",
            "instrukce": "Myslím si, že…",
            "minDelka": 10,
            "maxDelka": 999
          }
        ]
      }
    }
  ]
}
