{
  "cviceni": {
    "version": {
      "global": "<%= version %>",
      "content": 3
    },
    "language": "cs",
    "katalog": [
      "public",
      "test"
    ],
    "id": 2,
    "slug": "co-ministr-vzkazuje-ucitelum",
    "nazev": "Co ministr vzkazuje učitelům?",
    "autor": [
      "Kamil Činátl"
    ],
    "klicovaSlova": [
      "1968",
      "normalizace",
      "škola",
      "ideologie",
      "dobové perspektivy",
      "měníme pohledy"
    ],
    "anotace": {
      "ucitel": "V rámci cvičení se žáci prostřednictvím rozhlasového projevu ministra školství ČSR Jaromíra Hrbka ze září 1969 seznamují s normalizačním výkladem událostí roku 1968. S využitím dalších pramenů zkoumají významy, které mohli projevu ministra přikládat doboví posluchači, zejména učitelé. Cvičení využívá obeznámenost žáků se sociálním prostředím školy a podněcuje je k tomu, aby vnímali události pohledem dobových učitelů a promýšleli možné dopady projevu na jejich jednání.",
      "verejna": "Poslouchali jste ve škole projev k začátku školního roku? Pamatujete si, co obsahoval? Zaposlouchejte se do projevu ministra školství, který vyslechli učitelé a žáci roku 1969, a zjistěte, co všechno se z něj můžete dozvědět o dané době. Možná odhalíte více, než čekáte…"
    },
    "trvani": 30,
    "funkce": [
      "lupa",
      "cteni",
      "text",
      "audio",
      "svg"
    ],
    "pdf": {
      "doporucenyPostup": "co-ministr-vzkazuje-ucitelum.pdf"
    },
    "uvodniObrazek": "co-ministr-vzkazuje-ucitelum/pic-02-1024h.jpg"
  },
  "slajd": [
    {
      "class": "half-slide-previous",
      "zadani": {
        "hlavni": "Poslechněte si záznam projevu<span class='hide-on-previous-slide'> a prohlédněte si galerii dokumentů</span>.",
        "rozsirujici": ""
      },
      "napoveda": {
        "aktivity": [
          "lupa",
          "audio"
        ],
        "text": "Při kliknutí levým tlačítkem do obrazu lupa přiblíží část obrazu ve výřezu."
      },
      "media": {
        "nastaveni": {
          "vzhled": "normalni",
          "layout": "vertikalni"
        },
        "soubory": [
          {
            "soubor": "co-ministr-vzkazuje-ucitelum/audio-00.mp3",
            "nazev": "Škola má učit, ale i vychovávat socialistického člověka.",
            "popisek": "Projev ministra školství ČSR Jaromíra Hrbka z 1. 9. 1969 k začátku školního roku (kráceno). Zdroj: Archiv ČRo"
          }
        ],
        "galerie": [
          {
            "soubor": "co-ministr-vzkazuje-ucitelum/pic-00-1280w.jpg",
            "popisek": "Srpen 1968 v Praze. Zdroj: ČTK"
          },
          {
            "soubor": "co-ministr-vzkazuje-ucitelum/pic-01-1280w.jpg",
            "popisek": "Srpen 1969 v Praze. Foto Milan Linhart. Zdroj: ČTK"
          },
          {
            "soubor": "co-ministr-vzkazuje-ucitelum/pic-02-1024h.jpg",
            "popisek": "Jaromír Hrbek, ministr školství ČSR. Foto Karel Mevald. Zdroj: ČTK"
          },
          {
            "soubor": "co-ministr-vzkazuje-ucitelum/pic-03-1280w.jpg",
            "popisek": "Rudé právo, 2. září 1969"
          }
        ]
      }
    },
    {
      "class": "half-slide-active half-slide-previous",
      "zadani": {
        "hlavni": "Zapište hlavní myšlenky projevu.",
        "rozsirujici": ""
      },
      "napoveda": {
        "aktivity": [
          "svg"
        ],
        "text": "Vpisujte kliknutím do bubliny."
      },
      "svg": {
        "nastaveni": {
          "layout": "velka-galerie"
        },
        "soubory": [
          {
            "id": "svg-1",
            "soubor": "co-ministr-vzkazuje-ucitelum/pic-02-1024h.jpg",
            "funkce": [
              "text",
              "znacky",
              "komiks"
            ],
            "komiks": [
              {
                "kategorie": "text",
                "subkategorie": "myslenka",
                "pozice": [
                  60,
                  200
                ],
                "subjekt": [
                  "top",
                  "right"
                ]
              },
              {
                "kategorie": "text",
                "subkategorie": "myslenka",
                "pozice": [
                  710,
                  230
                ],
                "subjekt": [
                  "top",
                  "left"
                ]
              }
            ]
          }
        ]
      }
    },
    {
      "class": "half-slide-active",
      "zadani": {
        "hlavni": "Označte pasáže, v nichž ministr ovlivňuje postoje učitelů.",
        "rozsirujici": ""
      },
      "napoveda": {
        "aktivity": [
          "text-editor"
        ],
        "text": "Levým tlačítkem myši zabarvíte zvolené slovo nebo slovní spojení. Otevře se vám nabídka, v níž zvolíte označovanou kategorii. Křížkem lze označení smazat.  "
      },
      "textovyEditor": {
        "texty": [
          {
            "id": 0,
            "text": "text-00",
            "funkce": "zvyraznovani",
            "menu": [
              {
                "title": "Ovlivňuje postoje",
                "commandName": "ovlivnuje-postoje",
                "classes": "text-green",
                "command": "toggle-class",
                "commandOptions": {
                  "toggleClass": "node-selected node-text-green",
                  "closeBtn": true,
                  "comments": false,
                  "commentsClass": "text-orange"
                }
              }
            ]
          }
        ]
      }
    },
    {
      "zadani": {
        "hlavni": "Které výrazy nejlépe charakterizují vyznění ministrovy řeči?",
        "rozsirujici": "Pomocí zvětšování a zmenšování určete důležitost vybraných výrazů pro vyznění projevu. "
      },
      "napoveda": {
        "aktivity": [
          "word-cloud"
        ],
        "text": "Klikáním na znamenka -/+ zmenšujte či zdůrazňujte důležitost."
      },
      "klicovaSlova": {
        "klicovaSlova": [
          {
            "id": "klicova-slova-1",
            "funkce": "wordcloud",
            "tagy": [
              {
                "text": "naši učitelé"
              },
              {
                "text": "nedostatky výchovné práce"
              },
              {
                "text": "destruktivní působení"
              },
              {
                "text": "všichni"
              },
              {
                "text": "přičiníme se"
              },
              {
                "text": "nedovolíme"
              },
              {
                "text": "protikomunistické nálady"
              },
              {
                "text": "chci slíbit"
              },
              {
                "text": "zájmy pracujícího lidu"
              },
              {
                "text": "je vnitřně přesvědčen"
              },
              {
                "text": "zůstali věrni zásadám"
              },
              {
                "text": "oni"
              },
              {
                "text": "bude volán k odpovědnosti"
              },
              {
                "text": "stali obětí dezinformací"
              },
              {
                "text": "svůdci"
              },
              {
                "text": "našli své správné místo"
              },
              {
                "text": "naše mládež"
              },
              {
                "text": "předstírání"
              },
              {
                "text": "každý učitel"
              },
              {
                "text": "ponese plnou odpovědnost"
              },
              {
                "text": "nepřátelé strany a státu"
              },
              {
                "text": "bojujeme ze všech sil "
              }
            ]
          }
        ]
      }
    },
    {
      "zadani": {
        "hlavni": "Co ministr vzkazuje učitelům?",
        "rozsirujici": ""
      },
      "napoveda": {
        "aktivity": [
          "text"
        ],
        "text": "Do boxu pro text zapisujete odpověď na otázku, nebo jiný komentář (dle zadání)."
      },
      "uzivatelskyText": {
        "otazky": [
          {
            "id": "text-1",
            "zadani": "Jak mohli projev ministra v roce 1969 vnímat učitelé?",
            "instrukce": "Myslím si, že…",
            "minDelka": 10,
            "maxDelka": 400,
            "vyska": 8
          },
          {
            "id": "text-2",
            "zadani": "K jakému postoji projev učitele vyzýval?",
            "instrukce": "Myslím si, že…",
            "minDelka": 10,
            "maxDelka": 400,
            "vyska": 8
          }
        ]
      }
    }
  ]
}